<?xml version="1.0" encoding="utf-8"?>
<!-- Generator: Adobe Illustrator 22.0.0, SVG Export Plug-In . SVG Version: 6.00 Build 0)  -->
<svg version="1.1" id="Layer_1" xmlns="http://www.w3.org/2000/svg" xmlns:xlink="http://www.w3.org/1999/xlink" x="0px" y="0px"
	 viewBox="0 0 338 76" style="enable-background:new 0 0 338 76;" xml:space="preserve">
<style type="text/css">
	.st0{clip-path:url(#SVGID_2_);}
	.st1{clip-path:url(#SVGID_4_);}
	.st2{clip-path:url(#SVGID_6_);}
	.st3{clip-path:url(#SVGID_8_);}
	.st4{clip-path:url(#SVGID_10_);}
	.st5{clip-path:url(#SVGID_12_);}
	.st6{clip-path:url(#SVGID_14_);}
</style>
<polygon points="109.2,32.8 109.2,5.6 126.6,5.6 126.6,10.7 115.6,10.7 115.6,16.7 125.8,16.7 125.8,21.5 115.6,21.5 115.6,27.7 
	127.5,27.7 127.5,32.8 "/>
<g>
	<defs>
		<rect id="SVGID_1_" x="2.3" y="2.3" width="333.5" height="71.3"/>
	</defs>
	<clipPath id="SVGID_2_">
		<use xlink:href="#SVGID_1_"  style="overflow:visible;"/>
	</clipPath>
	<path class="st0" d="M141.2,33.2c-4.4,0-8.1-1.7-10.9-4.3l3.4-4.2c2.1,1.8,4.8,2.9,7.7,2.9c2.9,0,4-0.8,4-2.5
		c0-4.8-14.2-1.7-14.2-12.3c0-5,4.3-7.6,9-7.6c4.2,0,7.3,1.2,10.2,3.5l-3,4.5c-2-1.5-4-2.7-6.7-2.7c-2.7,0-3.5,1.3-3.5,2.4
		c0,5.9,14.5,2.4,14.5,12.1C151.7,31,146.7,33.2,141.2,33.2"/>
	<path class="st0" d="M325.2,33.2c-4.4,0-8.1-1.7-10.9-4.3l3.4-4.2c2.1,1.8,4.8,2.9,7.7,2.9c2.9,0,4-0.8,4-2.5
		c0-4.8-14.2-1.7-14.2-12.3c0-5,4.3-7.6,9-7.6c4.2,0,7.3,1.2,10.2,3.5l-3,4.5c-2-1.5-4-2.7-6.7-2.7c-2.7,0-3.5,1.3-3.5,2.4
		c0,5.9,14.5,2.4,14.5,12.1C335.7,31,330.7,33.2,325.2,33.2"/>
</g>
<polygon points="194.4,32.8 194.4,5.6 211.9,5.6 211.9,10.7 200.8,10.7 200.8,16.7 211,16.7 211,21.5 200.8,21.5 200.8,27.7 
	212.7,27.7 212.7,32.8 "/>
<g>
	<defs>
		<rect id="SVGID_3_" x="2.3" y="2.3" width="333.5" height="71.3"/>
	</defs>
	<clipPath id="SVGID_4_">
		<use xlink:href="#SVGID_3_"  style="overflow:visible;"/>
	</clipPath>
	<path class="st1" d="M226.2,10.7h-3.1v8.1h2.2c3.8,0,5.4-1.6,5.4-4.2C230.7,11.9,229.6,10.7,226.2,10.7 M232.6,32.8l-6.1-9.4
		c-0.5,0-0.9,0-1.4,0h-2v9.4h-6.4V5.6H227c6,0,10.3,2.8,10.3,8.9c0,3-1.9,6-4.8,7.6l7.1,10.7H232.6z"/>
	<path class="st1" d="M299.9,10.7h-3.1v8.1h2.2c3.8,0,5.4-1.6,5.4-4.2C304.4,11.9,303.3,10.7,299.9,10.7 M306.2,32.8l-6.1-9.4
		c-0.5,0-0.9,0-1.4,0h-2v9.4h-6.4V5.6h10.3c6,0,10.3,2.8,10.3,8.9c0,3-1.9,6-4.8,7.6l7.1,10.7H306.2z"/>
</g>
<polygon points="268.2,32.8 268.2,5.6 285.6,5.6 285.6,10.7 274.6,10.7 274.6,16.7 284.8,16.7 284.8,21.5 274.6,21.5 274.6,27.7 
	286.5,27.7 286.5,32.8 "/>
<polygon points="94,27.6 94,5.6 87.6,5.6 87.6,32.8 106.5,32.8 104.8,27.6 "/>
<polygon points="177.8,27.7 171.3,5.6 164.5,5.6 173.6,32.8 181.8,32.8 192.1,5.6 185.6,5.6 "/>
<g>
	<defs>
		<rect id="SVGID_5_" x="2.3" y="2.3" width="333.5" height="71.3"/>
	</defs>
	<clipPath id="SVGID_6_">
		<use xlink:href="#SVGID_5_"  style="overflow:visible;"/>
	</clipPath>
	<path class="st2" d="M254.6,33.2c-8.8,0-14.6-4.4-14.6-13.8c0-9.9,5.2-14.1,14.9-14.1c3.8,0,5.9,0.7,8,1.6l-1.7,4.7
		c-2.5-0.7-3.7-0.9-6.4-0.9c-4.7,0-8.3,2.3-8.3,8.3c0,6,3.9,8.7,8.8,8.7c0.6,0,1.2,0,1.7,0v-6.3h6.4v10.2
		C260.4,32.8,257.8,33.2,254.6,33.2"/>
</g>
<rect x="252.9" y="16.7" width="10.4" height="4.8"/>
<g>
	<defs>
		<rect id="SVGID_7_" x="2.3" y="2.3" width="333.5" height="71.3"/>
	</defs>
	<clipPath id="SVGID_8_">
		<use xlink:href="#SVGID_7_"  style="overflow:visible;"/>
	</clipPath>
	<path class="st3" d="M97,48.2h-3v17h3.8c6.1,0,8.5-2.8,8.5-8.2C106.2,51.1,103.4,48.2,97,48.2 M97.3,70.3h-9.7V43h9.5
		c9.2,0,15.5,4,15.5,13.5C112.6,66,106.9,70.3,97.3,70.3"/>
	<path class="st3" d="M128.6,70.8c-6.1,0-12.4-2-12.4-10.8V43h6.5v16.7c0,4.2,1.8,5.6,5.9,5.6c4,0,5.9-1.5,5.9-6.4V43h6.3v16
		C140.7,68.5,134.5,70.8,128.6,70.8"/>
</g>
<polygon points="194.5,70.3 194.5,43 211.9,43 211.9,48.2 200.9,48.2 200.9,54.2 211.1,54.2 211.1,59 200.9,59 200.9,65.1 
	212.8,65.1 212.8,70.3 "/>
<polygon points="232.8,70.3 223.1,57.2 223.1,70.3 216.8,70.3 216.8,43 223.1,43 223.1,54.7 232.2,43 240.4,43 229.6,55.8 241,70.3 
	"/>
<g>
	<defs>
		<rect id="SVGID_9_" x="2.3" y="2.3" width="333.5" height="71.3"/>
	</defs>
	<clipPath id="SVGID_10_">
		<use xlink:href="#SVGID_9_"  style="overflow:visible;"/>
	</clipPath>
	<path class="st4" d="M253.4,47.8c-5.6,0-7.8,3.8-7.8,8.8c0,5,2.1,9,7.6,9c5.9,0,7.9-3.9,7.9-8.9S258.8,47.8,253.4,47.8 M253.1,70.7
		c-9.3,0-13.9-5.4-13.9-14.1c0-9.2,5.6-14,14.6-14c9.7,0,13.8,5.5,13.8,14.1C267.6,65.7,262.5,70.7,253.1,70.7"/>
</g>
<polygon points="287,70.3 276.9,52.1 277,55.7 277,70.3 270.6,70.3 270.6,43 278,43 288.5,61.7 288.3,58.7 288.3,43 294.7,43 
	294.7,70.3 "/>
<g>
	<defs>
		<rect id="SVGID_11_" x="2.3" y="2.3" width="333.5" height="71.3"/>
	</defs>
	<clipPath id="SVGID_12_">
		<use xlink:href="#SVGID_11_"  style="overflow:visible;"/>
	</clipPath>
	<path class="st5" d="M313,70.7c-8.8,0-14.6-4.4-14.6-13.8c0-9.9,5.2-14.1,14.9-14.1c3.8,0,5.9,0.7,8,1.6l-1.7,4.7
		c-2.5-0.7-3.7-0.9-6.4-0.9c-4.7,0-8.3,2.3-8.3,8.3c0,6,3.9,8.7,8.8,8.7c0.6,0,1.2,0,1.7,0v-6.3h6.4v10.2
		C318.8,70.3,316.3,70.7,313,70.7"/>
</g>
<polygon points="168.4,43 160.6,43 160.6,70.2 167,70.2 167,55.4 173,70.2 176.8,70.2 176.8,64.4 "/>
<polygon points="181.6,43 189.4,43 189.4,70.2 183,70.2 183,55.4 176.9,70.2 173.2,70.2 173.2,64.4 "/>
<rect x="311.4" y="54.2" width="10.4" height="4.8"/>
<polygon points="41.6,2.3 37,28.2 32.5,2.3 29.6,2.8 34.1,28.7 21,6 18.4,7.4 31.6,30.2 11.4,13.3 9.5,15.5 29.8,32.4 4.9,23.4 
	3.9,26.1 28.8,35.1 2.3,35.1 2.3,38 71.7,38 71.7,35.1 45.2,35.1 70.2,26.1 69.1,23.4 44.3,32.4 64.6,15.5 62.7,13.3 42.4,30.2 
	55.7,7.4 53.1,6 39.9,28.7 44.5,2.8 "/>
<g>
	<defs>
		<rect id="SVGID_13_" x="2.3" y="2.3" width="333.5" height="71.3"/>
	</defs>
	<clipPath id="SVGID_14_">
		<use xlink:href="#SVGID_13_"  style="overflow:visible;"/>
	</clipPath>
	<path class="st6" d="M71.8,41c-1.5,17.8-15.7,32-33.3,32.7L71.8,41z"/>
	<path class="st6" d="M38.5,73.7V41h33.3C54.2,41.7,39.9,55.8,38.5,73.7"/>
	<path class="st6" d="M2.3,41c1.5,17.8,15.7,32,33.3,32.7L2.3,41z"/>
	<path class="st6" d="M35.6,73.7V41H2.3C19.8,41.7,34.2,55.8,35.6,73.7"/>
</g>
<g>
</g>
<g>
</g>
<g>
</g>
<g>
</g>
<g>
</g>
<g>
</g>
<g>
</g>
<g>
</g>
<g>
</g>
<g>
</g>
<g>
</g>
<g>
</g>
<g>
</g>
<g>
</g>
<g>
</g>
</svg>
